Sitename,LibraryName,LibraryLinkName,OrderCategories,TopLevelFolder,Level1,Level2,Level3,Level4
Inernational,Sales Data Toolkit,Sales/Data Toolkit,1,District MTV,District MTV,,,
Inernational,Sales Data Toolkit,Sales/Data Toolkit,1,Nickelodeon,Nickelodeon,,,
Inernational,Sales Data Toolkit,Sales/Data Toolkit,1,Comedy Central,Comedy Central,,,
Inernational,Sales Data Toolkit,Sales/Data Toolkit,1,MTV,MTV,,,
Inernational,Sales Packages Marketing Opportunties,Sales Packages / Marketing Opportunties,2,Music & Entertainment,Music and Entertainment,,,
Inernational,Sales Packages Marketing Opportunties,Sales Packages / Marketing Opportunties,2,Nickelodeon,Nickelodeon,,,
Inernational,Process Templates,Process/Templates,3,,,,,
Inernational,Research,Research,4,Nickelodeon,Nickelodeon,,,
Inernational,Research,Research,4,Comedy Central,Comedy Central,,,
Inernational,Research,Research,4,MTV,MTV,,,
Inernational,Case Studies,Case Studies,5,,,,,
Inernational,Restricted,Restricted,6,,,,,
