**********************
Windows PowerShell transcript start
Start time: 20141223185922
Username  : SHAREPOINT\Administrator 
Machine	  : SP15 (Microsoft Windows NT 6.1.7601 Service Pack 1) 
**********************
Transcript started, output file is .\Logs\CreateSites23Dec2014.log
Creating sites
Creating Sites : Search Center ( http://sp15:3636/sites/adspace/SearchCenter ).
Success: Creating Sites : Search Center ( http://sp15:3636/sites/adspace/SearchCenter ).
**********************
Windows PowerShell transcript end
End time: 20141223191025
**********************
